[ {
  "uid" : "bafc965f1139bce3",
  "name" : "should test search",
  "time" : {
    "start" : 1608405798038,
    "stop" : 1608405798362,
    "duration" : 324
  },
  "status" : "passed",
  "severity" : "normal"
}, {
  "uid" : "3725e694a6b5d3ff",
  "name" : "shoud login",
  "time" : {
    "start" : 1608405767786,
    "stop" : 1608405769801,
    "duration" : 2015
  },
  "status" : "passed",
  "severity" : "normal"
}, {
  "uid" : "cd6f92b797ae9420",
  "name" : "should be categories work",
  "time" : {
    "start" : 1608405776765,
    "stop" : 1608405780518,
    "duration" : 3753
  },
  "status" : "passed",
  "severity" : "normal"
}, {
  "uid" : "7fa04c5888ddea7c",
  "name" : "shoud be visible",
  "time" : {
    "start" : 1608405776533,
    "stop" : 1608405776756,
    "duration" : 223
  },
  "status" : "passed",
  "severity" : "normal"
}, {
  "uid" : "94535af06971f141",
  "name" : "should visit sneakers page",
  "time" : {
    "start" : 1608405797483,
    "stop" : 1608405797705,
    "duration" : 222
  },
  "status" : "passed",
  "severity" : "normal"
}, {
  "uid" : "a56bcf904771bd3b",
  "name" : "should add Sneaker",
  "time" : {
    "start" : 1608405755533,
    "stop" : 1608405760993,
    "duration" : 5460
  },
  "status" : "passed",
  "severity" : "normal"
}, {
  "uid" : "eea22705838d1df5",
  "name" : "should wrong data",
  "time" : {
    "start" : 1608405769831,
    "stop" : 1608405770960,
    "duration" : 1129
  },
  "status" : "passed",
  "severity" : "normal"
}, {
  "uid" : "3cd5385095fee52a",
  "name" : "should registration",
  "time" : {
    "start" : 1608405786511,
    "stop" : 1608405789991,
    "duration" : 3480
  },
  "status" : "passed",
  "severity" : "normal"
}, {
  "uid" : "2183c5c381d7f990",
  "name" : "should wrong data",
  "time" : {
    "start" : 1608405790005,
    "stop" : 1608405791107,
    "duration" : 1102
  },
  "status" : "passed",
  "severity" : "normal"
}, {
  "uid" : "ec9ad913357b354d",
  "name" : "should check inforamtion",
  "time" : {
    "start" : 1608405797786,
    "stop" : 1608405798025,
    "duration" : 239
  },
  "status" : "passed",
  "severity" : "normal"
} ]