{
  "uid" : "ab17fc5a4eb3bca4b216b548c7f9fcbc",
  "name" : "timeline",
  "children" : [ {
    "name" : "should registration",
    "uid" : "3cd5385095fee52a",
    "parentUid" : "ab17fc5a4eb3bca4b216b548c7f9fcbc",
    "status" : "passed",
    "time" : {
      "start" : 1608405786511,
      "stop" : 1608405789991,
      "duration" : 3480
    },
    "flaky" : false,
    "newFailed" : false,
    "parameters" : [ ]
  }, {
    "name" : "should add Sneaker",
    "uid" : "a56bcf904771bd3b",
    "parentUid" : "ab17fc5a4eb3bca4b216b548c7f9fcbc",
    "status" : "passed",
    "time" : {
      "start" : 1608405755533,
      "stop" : 1608405760993,
      "duration" : 5460
    },
    "flaky" : false,
    "newFailed" : false,
    "parameters" : [ ]
  }, {
    "name" : "should be categories work",
    "uid" : "cd6f92b797ae9420",
    "parentUid" : "ab17fc5a4eb3bca4b216b548c7f9fcbc",
    "status" : "passed",
    "time" : {
      "start" : 1608405776765,
      "stop" : 1608405780518,
      "duration" : 3753
    },
    "flaky" : false,
    "newFailed" : false,
    "parameters" : [ ]
  }, {
    "name" : "should check inforamtion",
    "uid" : "ec9ad913357b354d",
    "parentUid" : "ab17fc5a4eb3bca4b216b548c7f9fcbc",
    "status" : "passed",
    "time" : {
      "start" : 1608405797786,
      "stop" : 1608405798025,
      "duration" : 239
    },
    "flaky" : false,
    "newFailed" : false,
    "parameters" : [ ]
  }, {
    "name" : "should wrong data",
    "uid" : "2183c5c381d7f990",
    "parentUid" : "ab17fc5a4eb3bca4b216b548c7f9fcbc",
    "status" : "passed",
    "time" : {
      "start" : 1608405790005,
      "stop" : 1608405791107,
      "duration" : 1102
    },
    "flaky" : false,
    "newFailed" : false,
    "parameters" : [ ]
  }, {
    "name" : "shoud be visible",
    "uid" : "7fa04c5888ddea7c",
    "parentUid" : "ab17fc5a4eb3bca4b216b548c7f9fcbc",
    "status" : "passed",
    "time" : {
      "start" : 1608405776533,
      "stop" : 1608405776756,
      "duration" : 223
    },
    "flaky" : false,
    "newFailed" : false,
    "parameters" : [ ]
  }, {
    "name" : "shoud login",
    "uid" : "3725e694a6b5d3ff",
    "parentUid" : "ab17fc5a4eb3bca4b216b548c7f9fcbc",
    "status" : "passed",
    "time" : {
      "start" : 1608405767786,
      "stop" : 1608405769801,
      "duration" : 2015
    },
    "flaky" : false,
    "newFailed" : false,
    "parameters" : [ ]
  }, {
    "name" : "should wrong data",
    "uid" : "eea22705838d1df5",
    "parentUid" : "ab17fc5a4eb3bca4b216b548c7f9fcbc",
    "status" : "passed",
    "time" : {
      "start" : 1608405769831,
      "stop" : 1608405770960,
      "duration" : 1129
    },
    "flaky" : false,
    "newFailed" : false,
    "parameters" : [ ]
  }, {
    "name" : "should test search",
    "uid" : "bafc965f1139bce3",
    "parentUid" : "ab17fc5a4eb3bca4b216b548c7f9fcbc",
    "status" : "passed",
    "time" : {
      "start" : 1608405798038,
      "stop" : 1608405798362,
      "duration" : 324
    },
    "flaky" : false,
    "newFailed" : false,
    "parameters" : [ ]
  }, {
    "name" : "should visit sneakers page",
    "uid" : "94535af06971f141",
    "parentUid" : "ab17fc5a4eb3bca4b216b548c7f9fcbc",
    "status" : "passed",
    "time" : {
      "start" : 1608405797483,
      "stop" : 1608405797705,
      "duration" : 222
    },
    "flaky" : false,
    "newFailed" : false,
    "parameters" : [ ]
  } ]
}